{
  "update_version": 1,
  "min_swver": "",
  "note": "Apply old requirement of Sprint IMS conference URI for old model.",
  "imsprofile_update": {
    "profile": [
      {
        "name": "Cell C WiFi Calling",
        "mnoname": "CellC_za",
        "pdn": "ims",
        "pcscf_pref": "0",
        "port": "5060",
        "transport": "udp",
        "support_ipsec": "true",        "audio_srtp": 0,
        "audio_codec": "AMR-WB,AMR,PCMU,PCMA,DTMFWB,DTMF"
      },
      {
        "name": "Cell C VoWIFI E911",
        "mnoname": "CellC_za",
        "operator": [
          "65507"
        ],
        "sales_code": "XFA",
        "pdn": "emergency",
        "reg_enabled": "true",
        "priority": "1",
        "pcscf_pref": "0",
        "pcscf": "41.50.39.70",
        "port": "5060",
        "transport": "udp",
        "ipver": "ipv4",
        "timer": "1:500,2:16000,4:17000,A:2000,B:44000,C:72000,D:32000,E:2000,F:44000,G:2000,H:36000,I:17000,J:32000,K:17000",
        "support_ipsec": "true",
        "auth_algo": "hmac-md5-96",
        "enc_algo": "none",
        "enable_gruu": false,
        "session_expires": 3600,
        "ringing_timer": 90,
        "ringback_timer": 90,
        "use_precondition": true,
        "audio_codec_mode": "4",
        "audio_codec": "AMR-WB,AMR,PCMU,PCMA,DTMFWB,DTMF",
        "audio_srtp": 1,
        "support_roaming": true,
        "enable_rtcp_on_active_call": true,
        "network": [
          {
            "type": "wifi",
            "services": [
              "mmtel"
            ],
            "enabled": true,
            "dereg_timeout": 1000
          }
        ]
      }
    ],
    "remove_profile": [
    ]
  },
  "globalsettings_update": {
    "defaultsetting": {
    },
    "nohitsetting": {
    },
    "globalsetting": [
    ]
  },
  "mnomap_update": {
      "remove_mnomap": [
      ],
      "add_mnomap": [
      ]
  }
}